-48 -8 -32 -56 -80 -40 -24 -64 -16 -72 472
-992
-992
992
-16 -32 16 -24 -56 -72 728
56 -32 -16 48 -40 8 -48 -24 -64 584
-8 -16 -40 -24 -16 -8 -64 24 -32 -72 72 -48 -56 -32 -40 320
-24 -64 -16 -32 -16 -24 8 -48 -48 -72 -40 -48 -64 -56 -64 -72 -16 -32 -40 56
-120 -80 -88 -96 -104 -112 -24 -40 -56 200
-16 -24 -8 -72 -48 -32 -40 -56 -64 -72 -16 -8 -24 -64 -48 -56 -32 -40 -40 -32 -40
992
